Synchronous FIFO/verilator/tb.vcd
$version Generated by VerilatedVcd $end
$timescale 100ps $end
 $scope module $rootio $end
 $upscope $end
 $scope module tb $end
  $var real 64 G clk_cyc $end
  $var wire 32 I FIFO_WIDTH [31:0] $end
  $var wire 32 J FIFO_DEPTH [31:0] $end
  $var wire 32 K FIFO_ADDR_BIT [31:0] $end
  $var wire 32 L LOOP_NUM [31:0] $end
  $var wire 1 ; clk $end
  $var wire 1 # rstn $end
  $var wire 16 $ din [15:0] $end
  $var wire 1 % push $end
  $var wire 1 & pop $end
  $var wire 16 < dout_ref [15:0] $end
  $var wire 16 = dout [15:0] $end
  $var wire 16 > dout_buf [15:0] $end
  $var wire 1 ? fifo_empty $end
  $var wire 1 @ fifo_empty_ref $end
  $var wire 1 A fifo_ful $end
  $var wire 1 B fifo_ful_ref $end
  $var wire 1 C fifo_empty_buf $end
  $var wire 1 D fifo_ful_buf $end
  $var wire 32 ' stage [31:0] $end
  $var wire 32 ( give_fifo_op__Vstatic__rand0 [31:0] $end
  $var wire 32 ) give_fifo_op__Vstatic__rand1 [31:0] $end
  $var wire 32 * give_fifo_op__Vstatic__cnt [31:0] $end
  $scope module u_dut $end
   $var wire 32 I FIFO_WIDTH [31:0] $end
   $var wire 32 J FIFO_DEPTH [31:0] $end
   $var wire 32 K FIFO_ADDR_BIT [31:0] $end
   $var wire 1 % fifo_wr $end
   $var wire 1 & fifo_rd $end
   $var wire 16 $ fifo_din [15:0] $end
   $var wire 16 = fifo_do [15:0] $end
   $var wire 1 A fifo_ful $end
   $var wire 1 ? fifo_empty $end
   $var wire 1 ; clk $end
   $var wire 1 # rstn $end
   $var wire 16 5 mem[0] [15:0] $end
   $var wire 16 6 mem[1] [15:0] $end
   $var wire 16 7 mem[2] [15:0] $end
   $var wire 16 8 mem[3] [15:0] $end
   $var wire 16 9 mem[4] [15:0] $end
   $var wire 16 : mem[5] [15:0] $end
   $var wire 4 E rd_ptr [3:0] $end
   $var wire 4 F wr_ptr [3:0] $end
  $upscope $end
  $scope module u_model $end
   $var wire 32 I FIFO_WIDTH [31:0] $end
   $var wire 32 J FIFO_DEPTH [31:0] $end
   $var wire 32 K FIFO_ADDR_BIT [31:0] $end
   $var wire 1 % fifo_wr $end
   $var wire 1 & fifo_rd $end
   $var wire 16 $ fifo_din [15:0] $end
   $var wire 16 < fifo_do [15:0] $end
   $var wire 1 B fifo_ful $end
   $var wire 1 @ fifo_empty $end
   $var wire 1 ; clk $end
   $var wire 1 # rstn $end
   $var wire 16 + mem[0] [15:0] $end
   $var wire 16 , mem[1] [15:0] $end
   $var wire 16 - mem[2] [15:0] $end
   $var wire 16 . mem[3] [15:0] $end
   $var wire 16 / mem[4] [15:0] $end
   $var wire 16 0 mem[5] [15:0] $end
   $var wire 4 1 rd_ptr [3:0] $end
   $var wire 4 2 wr_ptr [3:0] $end
   $var wire 4 3 dnum [3:0] $end
   $var wire 16 4 dout [15:0] $end
  $upscope $end
 $upscope $end
$enddefinitions $end


#0
0#
b0000000000001010 $
0%
0&
b00000000000000000000000000000000 '
b00000000000000000000000000000000 (
b00000000000000000000000000000000 )
b00000000000000000000000000000000 *
b0000000000000000 +
b0000000000000000 ,
b0000000000000000 -
b0000000000000000 .
b0000000000000000 /
b0000000000000000 0
b0000 1
b0000 2
b0000 3
b0000000000000000 4
b0000000000000000 5
b0000000000000000 6
b0000000000000000 7
b0000000000000000 8
b0000000000000000 9
b0000000000000000 :
0;
b0000000000000000 <
b0000000000000000 =
b0000000000000000 >
1?
0@
0A
0B
0C
0D
b0000 E
b0000 F
r10 G
b00000000000000000000000000010000 I
b00000000000000000000000000000110 J
b00000000000000000000000000000011 K
b00000000000000000000000011001000 L
#10
1@
1C
#50
1;
#100
0;
#150
1;
#200
0;
#250
1;
#300
0;
#350
1;
#400
0;
#450
1;
#460
1#
#500
0;
#550
1;
#560
#600
b1101010100000010 $
1%
b00000000000000000000000001100000 (
b00000000000000000000000010010000 )
0;
#650
b1101010100000010 +
b0001 2
b0001 3
b1101010100000010 4
b1101010100000010 5
1;
b1101010100000010 =
0?
b0001 F
#660
0%
b00000000000000000000000000000001 *
b1101010100000010 <
b1101010100000010 >
0@
0C
#700
1&
b00000000000000000000000010111000 (
b00000000000000000000000000011000 )
0;
#750
b0001 1
b0000 3
b0000000000000000 4
1;
b0000000000000000 =
1?
b0001 E
#760
0&
b00000000000000000000000000000010 *
b0000000000000000 <
b0000000000000000 >
1@
1C
#800
b1111111111100100 $
1%
b00000000000000000000000000111100 (
b00000000000000000000000010011010 )
0;
#850
b1111111111100100 ,
b0010 2
b0001 3
b1111111111100100 4
b1111111111100100 6
1;
b1111111111100100 =
0?
b0010 F
#860
0%
b00000000000000000000000000000011 *
b1111111111100100 <
b1111111111100100 >
0@
0C
#900
b0001011100100001 $
1%
1&
b00000000000000000000000000100111 (
b00000000000000000000000000111011 )
0;
#950
b0001011100100001 -
b0010 1
b0011 2
b0001011100100001 4
b0001011100100001 7
1;
b0001011100100001 =
b0010 E
b0011 F
#960
0%
0&
b00000000000000000000000000000100 *
b0001011100100001 <
b0001011100100001 >
#1000
b1111001110000010 $
1%
1&
b00000000000000000000000001111001 (
b00000000000000000000000000010101 )
0;
#1050
b1111001110000010 .
b0011 1
b0100 2
b1111001110000010 4
b1111001110000010 8
1;
b1111001110000010 =
b0011 E
b0100 F
#1060
0%
0&
b00000000000000000000000000000101 *
b1111001110000010 <
b1111001110000010 >
#1100
b1100100100010010 $
1%
1&
b00000000000000000000000000000010 (
b00000000000000000000000000000101 )
0;
#1150
b1100100100010010 /
b0100 1
b0101 2
b1100100100010010 4
b1100100100010010 9
1;
b1100100100010010 =
b0100 E
b0101 F
#1160
0%
0&
b00000000000000000000000000000110 *
b1100100100010010 <
b1100100100010010 >
#1200
b0100000111110100 $
1%
1&
b00000000000000000000000000110010 (
b00000000000000000000000000001101 )
0;
#1250
b0100000111110100 0
b0101 1
b0000 2
b0100000111110100 4
b0100000111110100 :
1;
b0100000111110100 =
b0101 E
b1000 F
#1260
0%
0&
b00000000000000000000000000000111 *
b0100000111110100 <
b0100000111110100 >
#1300
b0000010010110010 $
1%
1&
b00000000000000000000000000010011 (
b00000000000000000000000000011100 )
0;
#1350
b0000010010110010 +
b0000 1
b0001 2
b0000010010110010 4
b0000010010110010 5
1;
b0000010010110010 =
b1000 E
b1001 F
#1360
0%
0&
b00000000000000000000000000001000 *
b0000010010110010 <
b0000010010110010 >
#1400
b0100010110011110 $
1%
1&
b00000000000000000000000000101000 (
b00000000000000000000000001011010 )
0;
#1450
b0100010110011110 ,
b0001 1
b0010 2
b0100010110011110 4
b0100010110011110 6
1;
b0100010110011110 =
b1001 E
b1010 F
#1460
0%
0&
b00000000000000000000000000001001 *
b0100010110011110 <
b0100010110011110 >
#1500
b0110101100010000 $
1%
1&
b00000000000000000000000000101110 (
b00000000000000000000000001101010 )
0;
#1550
b0110101100010000 -
b0010 1
b0011 2
b0110101100010000 4
b0110101100010000 7
1;
b0110101100010000 =
b1010 E
b1011 F
#1560
0%
0&
b00000000000000000000000000001010 *
b0110101100010000 <
b0110101100010000 >
#1600
b1010001011000000 $
1%
1&
b00000000000000000000000000111010 (
b00000000000000000000000000010111 )
0;
#1650
b1010001011000000 .
b0011 1
b0100 2
b1010001011000000 4
b1010001011000000 8
1;
b1010001011000000 =
b1011 E
b1100 F
#1660
0%
0&
b00000000000000000000000000001011 *
b1010001011000000 <
b1010001011000000 >
#1700
1&
b00000000000000000000000010110001 (
b00000000000000000000000001101110 )
0;
#1750
b0100 1
b0000 3
b1100100100010010 4
1;
b1100100100010010 =
1?
b1100 E
#1760
0&
b00000000000000000000000000001100 *
b1100100100010010 <
b1100100100010010 >
1@
1C
#1800
b0011001001100011 $
1%
b00000000000000000000000001101110 (
b00000000000000000000000001001001 )
0;
#1850
b0011001001100011 /
b0101 2
b0001 3
b0011001001100011 4
b0011001001100011 9
1;
b0011001001100011 =
0?
b1101 F
#1860
0%
b00000000000000000000000000001101 *
b0011001001100011 <
b0011001001100011 >
0@
0C
#1900
1&
b00000000000000000000000010101000 (
b00000000000000000000000001111111 )
0;
#1950
b0101 1
b0000 3
b0100000111110100 4
1;
b0100000111110100 =
1?
b1101 E
#1960
0&
b00000000000000000000000000001110 *
b0100000111110100 <
b0100000111110100 >
1@
1C
#2000
b00000000000000000000000010000110 (
b00000000000000000000000000011011 )
0;
#2050
1;
#2060
b00000000000000000000000000001111 *
#2100
b1101100001110111 $
1%
b00000000000000000000000001011101 (
b00000000000000000000000010010110 )
0;
#2150
b1101100001110111 0
b0000 2
b0001 3
b1101100001110111 4
b1101100001110111 :
1;
b1101100001110111 =
0?
b0000 F
#2160
0%
b00000000000000000000000000010000 *
b1101100001110111 <
b1101100001110111 >
0@
0C
#2200
b1110001101001111 $
1%
1&
b00000000000000000000000001110110 (
b00000000000000000000000000010000 )
0;
#2250
b1110001101001111 +
b0000 1
b0001 2
b1110001101001111 4
b1110001101001111 5
1;
b1110001101001111 =
b0000 E
b0001 F
#2260
0%
0&
b00000000000000000000000000010001 *
b1110001101001111 <
b1110001101001111 >
#2300
b0010111011100010 $
1%
1&
b00000000000000000000000001101011 (
b00000000000000000000000000010100 )
0;
#2350
b0010111011100010 ,
b0001 1
b0010 2
b0010111011100010 4
b0010111011100010 6
1;
b0010111011100010 =
b0001 E
b0010 F
#2360
0%
0&
b00000000000000000000000000010010 *
b0010111011100010 <
b0010111011100010 >
#2400
b1011001100001001 $
1%
b00000000000000000000000000110010 (
b00000000000000000000000010010011 )
0;
#2450
b1011001100001001 -
b0011 2
b0010 3
b1011001100001001 7
1;
b0011 F
#2460
0%
b00000000000000000000000000010011 *
#2500
b1010111110000100 $
1%
b00000000000000000000000001010011 (
b00000000000000000000000010000011 )
0;
#2550
b1010111110000100 .
b0100 2
b0011 3
b1010111110000100 8
1;
b0100 F
#2560
0%
b00000000000000000000000000010100 *
#2600
b1110101001001011 $
1%
1&
b00000000000000000000000000111001 (
b00000000000000000000000000011011 )
0;
#2650
b1110101001001011 /
b0010 1
b0101 2
b1011001100001001 4
b1110101001001011 9
1;
b1011001100001001 =
b0010 E
b0101 F
#2660
0%
0&
b00000000000000000000000000010101 *
b1011001100001001 <
b1011001100001001 >
#2700
1&
b00000000000000000000000010111000 (
b00000000000000000000000001110111 )
0;
#2750
b0011 1
b0010 3
b1010111110000100 4
1;
b1010111110000100 =
b0011 E
#2760
0&
b00000000000000000000000000010110 *
b1010111110000100 <
b1010111110000100 >
#2800
b00000000000000000000000010000001 (
b00000000000000000000000010111101 )
0;
#2850
1;
#2860
b00000000000000000000000000010111 *
#2900
b0011010001000111 $
1%
1&
b00000000000000000000000000000010 (
b00000000000000000000000001101101 )
0;
#2950
b0011010001000111 0
b0100 1
b0000 2
b1110101001001011 4
b0011010001000111 :
1;
b1110101001001011 =
b0100 E
b1000 F
#2960
0%
0&
b00000000000000000000000000011000 *
b1110101001001011 <
b1110101001001011 >
#3000
b1011010010101001 $
1%
1&
b00000000000000000000000001110100 (
b00000000000000000000000001011111 )
0;
#3050
b1011010010101001 +
b0101 1
b0001 2
b0011010001000111 4
b1011010010101001 5
1;
b0011010001000111 =
b0101 E
b1001 F
#3060
0%
0&
b00000000000000000000000000011001 *
b0011010001000111 <
b0011010001000111 >
#3100
b1001101001111000 $
1%
1&
b00000000000000000000000000011101 (
b00000000000000000000000000101101 )
0;
#3150
b1001101001111000 ,
b0000 1
b0010 2
b1011010010101001 4
b1001101001111000 6
1;
b1011010010101001 =
b1000 E
b1010 F
#3160
0%
0&
b00000000000000000000000000011010 *
b1011010010101001 <
b1011010010101001 >
#3200
b0000000101010100 $
1%
1&
b00000000000000000000000000101010 (
b00000000000000000000000000010010 )
0;
#3250
b0000000101010100 -
b0001 1
b0011 2
b1001101001111000 4
b0000000101010100 7
1;
b1001101001111000 =
b1001 E
b1011 F
#3260
0%
0&
b00000000000000000000000000011011 *
b1001101001111000 <
b1001101001111000 >
#3300
b1101000110011101 $
1%
1&
b00000000000000000000000001111000 (
b00000000000000000000000001000011 )
0;
#3350
b1101000110011101 .
b0010 1
b0100 2
b0000000101010100 4
b1101000110011101 8
1;
b0000000101010100 =
b1010 E
b1100 F
#3360
0%
0&
b00000000000000000000000000011100 *
b0000000101010100 <
b0000000101010100 >
#3400
1&
b00000000000000000000000010111011 (
b00000000000000000000000000011101 )
0;
#3450
b0011 1
b0001 3
b1101000110011101 4
1;
b1101000110011101 =
b1011 E
#3460
0&
b00000000000000000000000000011101 *
b1101000110011101 <
b1101000110011101 >
#3500
b1011100011001111 $
1%
1&
b00000000000000000000000000111001 (
b00000000000000000000000000110010 )
0;
#3550
b1011100011001111 /
b0100 1
b0101 2
b1011100011001111 4
b1011100011001111 9
1;
b1011100011001111 =
b1100 E
b1101 F
#3560
0%
0&
b00000000000000000000000000011110 *
b1011100011001111 <
b1011100011001111 >
#3600
1&
b00000000000000000000000010010101 (
b00000000000000000000000001110111 )
0;
#3650
b0101 1
b0000 3
b0011010001000111 4
1;
b0011010001000111 =
1?
b1101 E
#3660
0&
b00000000000000000000000000011111 *
b0011010001000111 <
b0011010001000111 >
1@
1C
#3700
b00000000000000000000000010110101 (
b00000000000000000000000010100010 )
0;
#3750
1;
#3760
b00000000000000000000000000100000 *
#3800
b0010011110011101 $
1%
b00000000000000000000000001000111 (
b00000000000000000000000010110011 )
0;
#3850
b0010011110011101 0
b0000 2
b0001 3
b0010011110011101 4
b0010011110011101 :
1;
b0010011110011101 =
0?
b0000 F
#3860
0%
b00000000000000000000000000100001 *
b0010011110011101 <
b0010011110011101 >
0@
0C
#3900
b1110001100101010 $
1%
1&
b00000000000000000000000000100011 (
b00000000000000000000000001000011 )
0;
#3950
b1110001100101010 +
b0000 1
b0001 2
b1110001100101010 4
b1110001100101010 5
1;
b1110001100101010 =
b0000 E
b0001 F
#3960
0%
0&
b00000000000000000000000000100010 *
b1110001100101010 <
b1110001100101010 >
#4000
1&
b00000000000000000000000010011111 (
b00000000000000000000000001000110 )
0;
#4050
b0001 1
b0000 3
b1001101001111000 4
1;
b1001101001111000 =
1?
b0001 E
#4060
0&
b00000000000000000000000000100011 *
b1001101001111000 <
b1001101001111000 >
1@
1C
#4100
b0100001010101111 $
1%
b00000000000000000000000000101011 (
b00000000000000000000000010011111 )
0;
#4150
b0100001010101111 ,
b0010 2
b0001 3
b0100001010101111 4
b0100001010101111 6
1;
b0100001010101111 =
0?
b0010 F
#4160
0%
b00000000000000000000000000100100 *
b0100001010101111 <
b0100001010101111 >
0@
0C
#4200
b0010101111111011 $
1%
1&
b00000000000000000000000000100000 (
b00000000000000000000000001110010 )
0;
#4250
b0010101111111011 -
b0010 1
b0011 2
b0010101111111011 4
b0010101111111011 7
1;
b0010101111111011 =
b0010 E
b0011 F
#4260
0%
0&
b00000000000000000000000000100101 *
b0010101111111011 <
b0010101111111011 >
#4300
b00000000000000000000000010101000 (
b00000000000000000000000010011110 )
0;
#4350
1;
#4360
b00000000000000000000000000100110 *
#4400
b1101100001100100 $
1%
b00000000000000000000000001010001 (
b00000000000000000000000010101000 )
0;
#4450
b1101100001100100 .
b0100 2
b0010 3
b1101100001100100 8
1;
b0100 F
#4460
0%
b00000000000000000000000000100111 *
#4500
b1101110100100001 $
1%
b00000000000000000000000000000101 (
b00000000000000000000000010010101 )
0;
#4550
b1101110100100001 /
b0101 2
b0011 3
b1101110100100001 9
1;
b0101 F
#4560
0%
b00000000000000000000000000101000 *
#4600
b0001100011110101 $
1%
1&
b00000000000000000000000001110011 (
b00000000000000000000000001111101 )
0;
#4650
b0001100011110101 0
b0011 1
b0000 2
b1101100001100100 4
b0001100011110101 :
1;
b1101100001100100 =
b0011 E
b1000 F
#4660
0%
0&
b00000000000000000000000000101001 *
b1101100001100100 <
b1101100001100100 >
#4700
1&
b00000000000000000000000010111001 (
b00000000000000000000000001111110 )
0;
#4750
b0100 1
b0010 3
b1101110100100001 4
1;
b1101110100100001 =
b0100 E
#4760
0&
b00000000000000000000000000101010 *
b1101110100100001 <
b1101110100100001 >
#4800
b0001111010010000 $
1%
b00000000000000000000000000011010 (
b00000000000000000000000010101010 )
0;
#4850
b0001111010010000 +
b0001 2
b0011 3
b0001111010010000 5
1;
b1001 F
#4860
0%
b00000000000000000000000000101011 *
#4900
b0001101100010000 $
1%
1&
b00000000000000000000000000111101 (
b00000000000000000000000001110000 )
0;
#4950
b0001101100010000 ,
b0101 1
b0010 2
b0001100011110101 4
b0001101100010000 6
1;
b0001100011110101 =
b0101 E
b1010 F
#4960
0%
0&
b00000000000000000000000000101100 *
b0001100011110101 <
b0001100011110101 >
#5000
b00000000000000000000000010110000 (
b00000000000000000000000010100111 )
0;
#5050
1;
#5060
b00000000000000000000000000101101 *
#5100
b00000000000000000000000010110100 (
b00000000000000000000000010110101 )
0;
#5150
1;
#5160
b00000000000000000000000000101110 *
#5200
1&
b00000000000000000000000010101100 (
b00000000000000000000000001001110 )
0;
#5250
b0000 1
b0010 3
b0001111010010000 4
1;
b0001111010010000 =
b1000 E
#5260
0&
b00000000000000000000000000101111 *
b0001111010010000 <
b0001111010010000 >
#5300
b1010111001000111 $
1%
1&
b00000000000000000000000000111111 (
b00000000000000000000000000111011 )
0;
#5350
b1010111001000111 -
b0001 1
b0011 2
b0001101100010000 4
b1010111001000111 7
1;
b0001101100010000 =
b1001 E
b1011 F
#5360
0%
0&
b00000000000000000000000000110000 *
b0001101100010000 <
b0001101100010000 >
#5400
b00000000000000000000000010110100 (
b00000000000000000000000010000111 )
0;
#5450
1;
#5460
b00000000000000000000000000110001 *
#5500
b00000000000000000000000010010000 (
b00000000000000000000000010101110 )
0;
#5550
1;
#5560
b00000000000000000000000000110010 *
#5600
b00000000000000000000000010100111 (
b00000000000000000000000010000010 )
0;
#5650
1;
#5660
b00000000000000000000000000110011 *
#5700
b1011111010000100 $
1%
1&
b00000000000000000000000000111011 (
b00000000000000000000000000101011 )
0;
#5750
b1011111010000100 .
b0010 1
b0100 2
b1010111001000111 4
b1011111010000100 8
1;
b1010111001000111 =
b1010 E
b1100 F
#5760
0%
0&
b00000000000000000000000000110100 *
b1010111001000111 <
b1010111001000111 >
#5800
b0111101100101000 $
1%
1&
b00000000000000000000000001110100 (
b00000000000000000000000001011000 )
0;
#5850
b0111101100101000 /
b0011 1
b0101 2
b1011111010000100 4
b0111101100101000 9
1;
b1011111010000100 =
b1011 E
b1101 F
#5860
0%
0&
b00000000000000000000000000110101 *
b1011111010000100 <
b1011111010000100 >
#5900
b1010011100111100 $
1%
b00000000000000000000000001101011 (
b00000000000000000000000010011001 )
0;
#5950
b1010011100111100 0
b0000 2
b0011 3
b1010011100111100 :
1;
b0000 F
#5960
0%
b00000000000000000000000000110110 *
#6000
b1001011110001010 $
1%
1&
b00000000000000000000000001001100 (
b00000000000000000000000001101001 )
0;
#6050
b1001011110001010 +
b0100 1
b0001 2
b0111101100101000 4
b1001011110001010 5
1;
b0111101100101000 =
b1100 E
b0001 F
#6060
0%
0&
b00000000000000000000000000110111 *
b0111101100101000 <
b0111101100101000 >
#6100
b0011100101011011 $
1%
b00000000000000000000000000110001 (
b00000000000000000000000010100011 )
0;
#6150
b0011100101011011 ,
b0010 2
b0100 3
b0011100101011011 6
1;
b0010 F
#6160
0%
b00000000000000000000000000111000 *
#6200
b1101011011000110 $
1%
1&
b00000000000000000000000001011100 (
b00000000000000000000000001111100 )
0;
#6250
b1101011011000110 -
b0101 1
b0011 2
b1010011100111100 4
b1101011011000110 7
1;
b1010011100111100 =
b1101 E
b0011 F
#6260
0%
0&
b00000000000000000000000000111001 *
b1010011100111100 <
b1010011100111100 >
#6300
b1101100100000100 $
1%
1&
b00000000000000000000000000010110 (
b00000000000000000000000000100101 )
0;
#6350
b1101100100000100 .
b0000 1
b0100 2
b1001011110001010 4
b1101100100000100 8
1;
b1001011110001010 =
b0000 E
b0100 F
#6360
0%
0&
b00000000000000000000000000111010 *
b1001011110001010 <
b1001011110001010 >
#6400
b0111011010111101 $
1%
1&
b00000000000000000000000000001100 (
b00000000000000000000000001111100 )
0;
#6450
b0111011010111101 /
b0001 1
b0101 2
b0011100101011011 4
b0111011010111101 9
1;
b0011100101011011 =
b0001 E
b0101 F
#6460
0%
0&
b00000000000000000000000000111011 *
b0011100101011011 <
b0011100101011011 >
#6500
b00000000000000000000000010111111 (
b00000000000000000000000010110110 )
0;
#6550
1;
#6560
b00000000000000000000000000111100 *
#6600
b1011000001100011 $
1%
b00000000000000000000000001000001 (
b00000000000000000000000010101011 )
0;
#6650
b1011000001100011 0
b0000 2
b0101 3
b1011000001100011 :
1;
b1000 F
#6660
0%
b00000000000000000000000000111101 *
#6700
b1011000000000100 $
1%
b00000000000000000000000001100010 (
b00000000000000000000000010010000 )
0;
#6750
b1011000000000100 +
b0001 2
b0110 3
b1011000000000100 5
1;
1A
b1001 F
#6760
0%
b00000000000000000000000000111110 *
1B
1D
#6800
1&
b00000000000000000000000000111111 (
b00000000000000000000000000100000 )
0;
#6850
b0010 1
b0101 3
b1101011011000110 4
1;
b1101011011000110 =
0A
b0010 E
#6860
0&
b00000000000000000000000000111111 *
b1101011011000110 <
b1101011011000110 >
0B
0D
#6900
1&
b00000000000000000000000010111111 (
b00000000000000000000000001011000 )
0;
#6950
b0011 1
b0100 3
b1101100100000100 4
1;
b1101100100000100 =
b0011 E
#6960
0&
b00000000000000000000000001000000 *
b1101100100000100 <
b1101100100000100 >
#7000
b00000000000000000000000010001101 (
b00000000000000000000000010110101 )
0;
#7050
1;
#7060
b00000000000000000000000001000001 *
#7100
b00000000000000000000000010011111 (
b00000000000000000000000010110110 )
0;
#7150
1;
#7160
b00000000000000000000000001000010 *
#7200
b1011011001111011 $
1%
1&
b00000000000000000000000000010100 (
b00000000000000000000000000000100 )
0;
#7250
b1011011001111011 ,
b0100 1
b0010 2
b0111011010111101 4
b1011011001111011 6
1;
b0111011010111101 =
b0100 E
b1010 F
#7260
0%
0&
b00000000000000000000000001000011 *
b0111011010111101 <
b0111011010111101 >
#7300
b0101101011101101 $
1%
1&
b00000000000000000000000000001101 (
b00000000000000000000000000010010 )
0;
#7350
b0101101011101101 -
b0101 1
b0011 2
b1011000001100011 4
b0101101011101101 7
1;
b1011000001100011 =
b0101 E
b1011 F
#7360
0%
0&
b00000000000000000000000001000100 *
b1011000001100011 <
b1011000001100011 >
#7400
b0101010110111101 $
1%
b00000000000000000000000000001100 (
b00000000000000000000000010001000 )
0;
#7450
b0101010110111101 .
b0100 2
b0101 3
b0101010110111101 8
1;
b1100 F
#7460
0%
b00000000000000000000000001000101 *
#7500
b0000101011001011 $
1%
b00000000000000000000000000011100 (
b00000000000000000000000010101111 )
0;
#7550
b0000101011001011 /
b0101 2
b0110 3
b0000101011001011 9
1;
1A
b1101 F
#7560
0%
b00000000000000000000000001000110 *
1B
1D
#7600
1&
b00000000000000000000000010100011 (
b00000000000000000000000000010001 )
0;
#7650
b0000 1
b0101 3
b1011000000000100 4
1;
b1011000000000100 =
0A
b1000 E
#7660
0&
b00000000000000000000000001000111 *
b1011000000000100 <
b1011000000000100 >
0B
0D
#7700
1&
b00000000000000000000000010100110 (
b00000000000000000000000000001100 )
0;
#7750
b0001 1
b0100 3
b1011011001111011 4
1;
b1011011001111011 =
b1001 E
#7760
0&
b00000000000000000000000001001000 *
b1011011001111011 <
b1011011001111011 >
#7800
b0111010100000000 $
1%
1&
b00000000000000000000000000001010 (
b00000000000000000000000000100111 )
0;
#7850
b0111010100000000 0
b0010 1
b0000 2
b0101101011101101 4
b0111010100000000 :
1;
b0101101011101101 =
b1010 E
b0000 F
#7860
0%
0&
b00000000000000000000000001001001 *
b0101101011101101 <
b0101101011101101 >
#7900
b0111110100111001 $
1%
1&
b00000000000000000000000000111010 (
b00000000000000000000000000100011 )
0;
#7950
b0111110100111001 +
b0011 1
b0001 2
b0101010110111101 4
b0111110100111001 5
1;
b0101010110111101 =
b1011 E
b0001 F
#7960
0%
0&
b00000000000000000000000001001010 *
b0101010110111101 <
b0101010110111101 >
#8000
1&
b00000000000000000000000010010101 (
b00000000000000000000000000111111 )
0;
#8050
b0100 1
b0011 3
b0000101011001011 4
1;
b0000101011001011 =
b1100 E
#8060
0&
b00000000000000000000000001001011 *
b0000101011001011 <
b0000101011001011 >
#8100
b1111011001111100 $
1%
b00000000000000000000000000100110 (
b00000000000000000000000010011010 )
0;
#8150
b1111011001111100 ,
b0010 2
b0100 3
b1111011001111100 6
1;
b0010 F
#8160
0%
b00000000000000000000000001001100 *
#8200
1&
b00000000000000000000000010000110 (
b00000000000000000000000000100010 )
0;
#8250
b0101 1
b0011 3
b0111010100000000 4
1;
b0111010100000000 =
b1101 E
#8260
0&
b00000000000000000000000001001101 *
b0111010100000000 <
b0111010100000000 >
#8300
b0100000100100111 $
1%
b00000000000000000000000001000010 (
b00000000000000000000000010110011 )
0;
#8350
b0100000100100111 -
b0011 2
b0100 3
b0100000100100111 7
1;
b0011 F
#8360
0%
b00000000000000000000000001001110 *
#8400
b0110001100000110 $
1%
1&
b00000000000000000000000000011110 (
b00000000000000000000000001100110 )
0;
#8450
b0110001100000110 .
b0000 1
b0100 2
b0111110100111001 4
b0110001100000110 8
1;
b0111110100111001 =
b0000 E
b0100 F
#8460
0%
0&
b00000000000000000000000001001111 *
b0111110100111001 <
b0111110100111001 >
#8500
b0101000111011100 $
1%
b00000000000000000000000000000001 (
b00000000000000000000000010110011 )
0;
#8550
b0101000111011100 /
b0101 2
b0101 3
b0101000111011100 9
1;
b0101 F
#8560
0%
b00000000000000000000000001010000 *
#8600
b1101101101111001 $
1%
1&
b00000000000000000000000001110000 (
b00000000000000000000000000110001 )
0;
#8650
b1101101101111001 0
b0001 1
b0000 2
b1111011001111100 4
b1101101101111001 :
1;
b1111011001111100 =
b0001 E
b1000 F
#8660
0%
0&
b00000000000000000000000001010001 *
b1111011001111100 <
b1111011001111100 >
#8700
b0100010111110111 $
1%
1&
b00000000000000000000000001101100 (
b00000000000000000000000001110100 )
0;
#8750
b0100010111110111 +
b0010 1
b0001 2
b0100000100100111 4
b0100010111110111 5
1;
b0100000100100111 =
b0010 E
b1001 F
#8760
0%
0&
b00000000000000000000000001010010 *
b0100000100100111 <
b0100000100100111 >
#8800
b0101011110101111 $
1%
1&
b00000000000000000000000001001010 (
b00000000000000000000000001011001 )
0;
#8850
b0101011110101111 ,
b0011 1
b0010 2
b0110001100000110 4
b0101011110101111 6
1;
b0110001100000110 =
b0011 E
b1010 F
#8860
0%
0&
b00000000000000000000000001010011 *
b0110001100000110 <
b0110001100000110 >
#8900
b1001001111001010 $
1%
1&
b00000000000000000000000001110001 (
b00000000000000000000000001101100 )
0;
#8950
b1001001111001010 -
b0100 1
b0011 2
b0101000111011100 4
b1001001111001010 7
1;
b0101000111011100 =
b0100 E
b1011 F
#8960
0%
0&
b00000000000000000000000001010100 *
b0101000111011100 <
b0101000111011100 >
#9000
b1110101001111000 $
1%
1&
b00000000000000000000000000011110 (
b00000000000000000000000001101111 )
0;
#9050
b1110101001111000 .
b0101 1
b0100 2
b1101101101111001 4
b1110101001111000 8
1;
b1101101101111001 =
b0101 E
b1100 F
#9060
0%
0&
b00000000000000000000000001010101 *
b1101101101111001 <
b1101101101111001 >
#9100
b1110101001011010 $
1%
1&
b00000000000000000000000000110000 (
b00000000000000000000000001100011 )
0;
#9150
b1110101001011010 /
b0000 1
b0101 2
b0100010111110111 4
b1110101001011010 9
1;
b0100010111110111 =
b1000 E
b1101 F
#9160
0%
0&
b00000000000000000000000001010110 *
b0100010111110111 <
b0100010111110111 >
#9200
b00000000000000000000000010000100 (
b00000000000000000000000010100001 )
0;
#9250
1;
#9260
b00000000000000000000000001010111 *
#9300
b0111111000010000 $
1%
b00000000000000000000000001001001 (
b00000000000000000000000011000001 )
0;
#9350
b0111111000010000 0
b0000 2
b0110 3
b0111111000010000 :
1;
1A
b0000 F
#9360
0%
b00000000000000000000000001011000 *
1B
1D
#9400
1&
b00000000000000000000000010010000 (
b00000000000000000000000000100001 )
0;
#9450
b0001 1
b0101 3
b0101011110101111 4
1;
b0101011110101111 =
0A
b1001 E
#9460
0&
b00000000000000000000000001011001 *
b0101011110101111 <
b0101011110101111 >
0B
0D
#9500
b1010010010001100 $
1%
1&
b00000000000000000000000000100010 (
b00000000000000000000000000011101 )
0;
#9550
b1010010010001100 +
b0010 1
b0001 2
b1001001111001010 4
b1010010010001100 5
1;
b1001001111001010 =
b1010 E
b0001 F
#9560
0%
0&
b00000000000000000000000001011010 *
b1001001111001010 <
b1001001111001010 >
#9600
b1111100010000110 $
1%
1&
b00000000000000000000000001011110 (
b00000000000000000000000000100110 )
0;
#9650
b1111100010000110 ,
b0011 1
b0010 2
b1110101001111000 4
b1111100010000110 6
1;
b1110101001111000 =
b1011 E
b0010 F
#9660
0%
0&
b00000000000000000000000001011011 *
b1110101001111000 <
b1110101001111000 >
#9700
b1100100101101110 $
1%
1&
b00000000000000000000000000010110 (
b00000000000000000000000001010001 )
0;
#9750
b1100100101101110 -
b0100 1
b0011 2
b1110101001011010 4
b1100100101101110 7
1;
b1110101001011010 =
b1100 E
b0011 F
#9760
0%
0&
b00000000000000000000000001011100 *
b1110101001011010 <
b1110101001011010 >
#9800
b0110000001010100 $
1%
1&
b00000000000000000000000000100101 (
b00000000000000000000000000100000 )
0;
#9850
b0110000001010100 .
b0101 1
b0100 2
b0111111000010000 4
b0110000001010100 8
1;
b0111111000010000 =
b1101 E
b0100 F
#9860
0%
0&
b00000000000000000000000001011101 *
b0111111000010000 <
b0111111000010000 >
#9900
1&
b00000000000000000000000011000001 (
b00000000000000000000000001001101 )
0;
